{
    "version": "{A30FA150-A853-4565-A28E-C1C8127A232D}",
    "id": "root",
    "level": 1,
    "mbs": [
        -122.43566176438537,
        37.77042004552446,
        -287.95067680952485,
        8911.658203125
    ],
    "lodSelection": [
        {
            "metricType": "maxScreenThreshold",
            "maxError": 0
        }
    ],
    "sharedResource": null,
    "featureData": null,
    "geometryData": null,
    "textureData": null,
    "attributeData": null,
    "parentNode": null,
    "features": null,
    "neighbors": null,
    "children": [
        {
            "id": "0",
            "href": "../0",
            "mbs": [
                -122.4522980390885,
                37.753092386140182,
                194.04417734922541,
                2143.6787109375
            ]
        }
    ]
}